<svg xmlns="http://www.w3.org/2000/svg" width="24.168" height="30.506" viewBox="0 0 24.168 30.506">
  <g id="Grupo_1272" data-name="Grupo 1272" transform="translate(-626.934 -766.762)">
    <g id="Grupo_1271" data-name="Grupo 1271" transform="translate(627.134 766.962)">
      <path id="Trazado_562" data-name="Trazado 562" d="M26.184,8.338H7.169a3.155,3.155,0,0,1-1.585-.424V28.937a1.584,1.584,0,0,0,1.585,1.585H26.184Zm1.352-1.352a.79.79,0,0,1,.232.56V31.314a.792.792,0,0,1-.792.792H7.169A3.169,3.169,0,0,1,4,28.937V5.169A3.169,3.169,0,0,1,7.169,2H25.391a.792.792,0,0,1,.792.792V6.754h.792A.79.79,0,0,1,27.536,6.986ZM24.6,6.754V3.585H7.169a1.585,1.585,0,1,0,0,3.169Z" transform="translate(-4 -2)" fill="#3f3f3f" stroke="#3f3f3f" stroke-width="0.4"/>
    </g>
    <path id="Trazado_20" data-name="Trazado 20" d="M721.578,322.791l-.2-.821a.482.482,0,0,0-.585-.352l-3.779.945-.034-.021-.436-1.744.02-.034,3.774-.941a.483.483,0,0,0,.351-.587l-.167-.656a.9.9,0,0,0-.266-.449c-1.247-1.125-4.219-2.259-6.587-1.1a7.409,7.409,0,0,1-4.172,1.063h-1.688a.351.351,0,0,0-.283.56,4.371,4.371,0,0,1,.53.936.572.572,0,0,0,.527.358h.913a9.212,9.212,0,0,0,4.987-1.251,3.95,3.95,0,0,1,2.886-.043l-1.65.412a.872.872,0,0,0-.536.4l-.44.733a.87.87,0,0,0-.1.659l.634,2.534a.87.87,0,0,0,.4.535l.733.439a.87.87,0,0,0,.659.1l1.63-.4a3.8,3.8,0,0,1-2.692,1.51,4.459,4.459,0,0,1-2.735-1.316,5.978,5.978,0,0,0-3.773-1.678h-.913a.572.572,0,0,0-.527.358,4.381,4.381,0,0,1-.53.936.351.351,0,0,0,.283.56h1.688a4.35,4.35,0,0,1,2.627,1.281A6.112,6.112,0,0,0,716,327.427c3.257,0,5.393-3.831,5.482-3.994h0A.859.859,0,0,0,721.578,322.791Z" transform="translate(-79.441 462.127)" fill="#3f3f3f"/>
  </g>
</svg>
