<svg xmlns="http://www.w3.org/2000/svg" width="42.001" height="26.251" viewBox="0 0 42.001 26.251">
  <g id="Grupo_85" data-name="Grupo 85" transform="translate(0 -5)">
    <g id="Grupo_26" data-name="Grupo 26" transform="translate(0 5)">
      <g id="Grupo_25" data-name="Grupo 25" transform="translate(0 0)">
        <path id="Trazado_37" data-name="Trazado 37" d="M5.758,21S5.75,1.751,5.75,1.751h17.5V21H15.375v1.75h12.25V21H25V1.751A1.756,1.756,0,0,0,23.25,0H5.751A1.756,1.756,0,0,0,4,1.751V21a1.76,1.76,0,0,0,1.758,1.751H8.375V21Z" transform="translate(3)" fill="#fff" fill-rule="evenodd"/>
        <path id="Trazado_38" data-name="Trazado 38" d="M23.379,3.75a.859.859,0,0,1,.568.321L28.3,11.329a2.813,2.813,0,0,1,.323,1.167V19.5c0,.005-2.625,0-2.625,0v1.75h2.617A1.739,1.739,0,0,0,30.375,19.5V12.5a4.509,4.509,0,0,0-.572-2.067L25.448,3.171A2.568,2.568,0,0,0,23.379,2H15.5V3.75Z" transform="translate(11.626 1.5)" fill="#fff" fill-rule="evenodd"/>
        <path id="Trazado_39" data-name="Trazado 39" d="M19.742,4A1.733,1.733,0,0,0,18,5.733v5.284a1.731,1.731,0,0,0,1.746,1.733h7.879V11H19.746c-.008,0,0-5.267,0-5.267s4.375.017,4.375.017V4Z" transform="translate(13.501 3)" fill="#fff" fill-rule="evenodd"/>
        <path id="Trazado_40" data-name="Trazado 40" d="M10.375,18.75A4.375,4.375,0,1,0,6,14.375,4.375,4.375,0,0,0,10.375,18.75Zm0-1.75A2.625,2.625,0,1,0,7.75,14.375,2.625,2.625,0,0,0,10.375,17Z" transform="translate(4.5 7.501)" fill="#fff" fill-rule="evenodd"/>
        <path id="Trazado_41" data-name="Trazado 41" d="M21.375,18.75A4.375,4.375,0,1,0,17,14.375,4.375,4.375,0,0,0,21.375,18.75Zm0-1.75a2.625,2.625,0,1,0-2.625-2.625A2.625,2.625,0,0,0,21.375,17Z" transform="translate(12.751 7.501)" fill="#fff" fill-rule="evenodd"/>
        <rect id="Rectángulo_14" data-name="Rectángulo 14" width="3.5" height="1.75" transform="translate(1.75 5.25)" fill="#fff"/>
        <rect id="Rectángulo_15" data-name="Rectángulo 15" width="5.25" height="1.75" transform="translate(0 1.75)" fill="#fff"/>
        <rect id="Rectángulo_16" data-name="Rectángulo 16" width="1.75" height="1.75" transform="translate(3.5 8.75)" fill="#fff"/>
      </g>
    </g>
  </g>
</svg>
