<svg xmlns="http://www.w3.org/2000/svg" width="106.67" height="49.043" viewBox="0 0 106.67 49.043">
  <g id="Grupo_57" data-name="Grupo 57" transform="translate(-543.16 -316.544)">
    <g id="Grupo_5" data-name="Grupo 5" transform="translate(543.932 352.634)">
      <path id="Trazado_4" data-name="Trazado 4" d="M550.45,422.629a3.533,3.533,0,0,1-.908.349,4.376,4.376,0,0,1-1.04.125,2.4,2.4,0,0,1-1.7-.606,2.171,2.171,0,0,1-.652-1.672v-3.054h-.987v-1.553h.987v-1.974h2.33v1.974h1.843v1.553h-1.843v2.685q0,.751.619.75a2.285,2.285,0,0,0,.908-.237Z" transform="translate(-545.158 -412.599)" fill="#2a5d73"/>
      <path id="Trazado_5" data-name="Trazado 5" d="M566.077,418.719A3.32,3.32,0,0,1,567.446,420a3.984,3.984,0,0,1,0,3.817,3.32,3.32,0,0,1-1.369,1.277,4.814,4.814,0,0,1-4.081,0,3.276,3.276,0,0,1-1.362-1.277,4.031,4.031,0,0,1,0-3.817A3.276,3.276,0,0,1,562,418.719a4.81,4.81,0,0,1,4.081,0Zm-3.146,1.928a1.88,1.88,0,0,0-.421,1.277,1.9,1.9,0,0,0,.421,1.29,1.391,1.391,0,0,0,1.106.487,1.4,1.4,0,0,0,1.119-.487,1.9,1.9,0,0,0,.421-1.29,1.864,1.864,0,0,0-.428-1.277,1.41,1.41,0,0,0-1.112-.487A1.391,1.391,0,0,0,562.931,420.648Z" transform="translate(-554.362 -415.067)" fill="#2a5d73"/>
      <path id="Trazado_6" data-name="Trazado 6" d="M589.74,418.719a3.052,3.052,0,0,1,1.165,1.29,4.683,4.683,0,0,1,.013,3.824,2.965,2.965,0,0,1-1.146,1.264,3.267,3.267,0,0,1-1.718.447,2.825,2.825,0,0,1-1.217-.256,2.533,2.533,0,0,1-.928-.744v3.475h-2.343v-9.675h2.343v.922a2.512,2.512,0,0,1,2.093-1A3.289,3.289,0,0,1,589.74,418.719Zm-1.2,4.443a1.865,1.865,0,0,0,.428-1.277,1.891,1.891,0,0,0-.428-1.284,1.4,1.4,0,0,0-1.112-.494,1.369,1.369,0,0,0-1.093.494,1.909,1.909,0,0,0-.421,1.284,1.883,1.883,0,0,0,.421,1.277,1.377,1.377,0,0,0,1.093.487A1.411,1.411,0,0,0,588.535,423.162Z" transform="translate(-568.731 -415.067)" fill="#2a5d73"/>
      <path id="Trazado_7" data-name="Trazado 7" d="M608.62,413.413a.715.715,0,0,0-.224.566v.461h1.58v1.553H608.4v5.226h-2.33v-5.226H605.1V414.44h.961v-.658a2.229,2.229,0,0,1,.757-1.784,2.869,2.869,0,0,1,1.942-.652,4.386,4.386,0,0,1,1.527.276l-.3,1.777a2.673,2.673,0,0,0-.79-.184A.842.842,0,0,0,608.62,413.413Z" transform="translate(-581.951 -410.821)" fill="#2a5d73"/>
      <path id="Trazado_8" data-name="Trazado 8" d="M624.542,419.292a4.029,4.029,0,0,1,.935,2.817c0,.185,0,.325-.013.421h-4.949a1.711,1.711,0,0,0,.592.928,1.638,1.638,0,0,0,1.027.323,2.225,2.225,0,0,0,.888-.184,2.5,2.5,0,0,0,.783-.54l1.224,1.224a3.607,3.607,0,0,1-1.336.941,4.612,4.612,0,0,1-1.771.322,4.261,4.261,0,0,1-2-.447,3.11,3.11,0,0,1-1.31-1.264,3.833,3.833,0,0,1-.454-1.9,3.93,3.93,0,0,1,.461-1.928,3.182,3.182,0,0,1,1.3-1.29,4.041,4.041,0,0,1,1.948-.454A3.429,3.429,0,0,1,624.542,419.292Zm-1.343,1.988a1.373,1.373,0,0,0-.362-.994,1.377,1.377,0,0,0-1.882-.007,1.834,1.834,0,0,0-.493,1Z" transform="translate(-589.962 -415.067)" fill="#2a5d73"/>
      <path id="Trazado_9" data-name="Trazado 9" d="M643.505,418.56a2.681,2.681,0,0,1,1.336-.329v2.146c-.079-.008-.2-.013-.356-.013a2.168,2.168,0,0,0-1.343.388,1.491,1.491,0,0,0-.592,1.06v3.633h-2.343v-7.121h2.343v1.185A2.566,2.566,0,0,1,643.505,418.56Z" transform="translate(-603.496 -415.046)" fill="#2a5d73"/>
      <path id="Trazado_10" data-name="Trazado 10" d="M658.159,418.56a2.681,2.681,0,0,1,1.336-.329v2.146c-.079-.008-.2-.013-.356-.013a2.169,2.169,0,0,0-1.343.388,1.489,1.489,0,0,0-.592,1.06v3.633h-2.343v-7.121h2.343v1.185A2.563,2.563,0,0,1,658.159,418.56Z" transform="translate(-612.49 -415.046)" fill="#2a5d73"/>
      <path id="Trazado_11" data-name="Trazado 11" d="M674.4,419.292a4.029,4.029,0,0,1,.935,2.817c0,.185,0,.325-.013.421h-4.949a1.711,1.711,0,0,0,.592.928,1.638,1.638,0,0,0,1.027.323,2.226,2.226,0,0,0,.888-.184,2.509,2.509,0,0,0,.783-.54l1.224,1.224a3.608,3.608,0,0,1-1.336.941,4.612,4.612,0,0,1-1.771.322,4.261,4.261,0,0,1-2-.447,3.11,3.11,0,0,1-1.31-1.264,3.831,3.831,0,0,1-.454-1.9,3.93,3.93,0,0,1,.461-1.928,3.182,3.182,0,0,1,1.3-1.29,4.042,4.042,0,0,1,1.948-.454A3.43,3.43,0,0,1,674.4,419.292Zm-1.343,1.988a1.373,1.373,0,0,0-.362-.994,1.377,1.377,0,0,0-1.883-.007,1.838,1.838,0,0,0-.494,1Z" transform="translate(-620.564 -415.067)" fill="#2a5d73"/>
      <path id="Trazado_12" data-name="Trazado 12" d="M693.654,422.629a3.524,3.524,0,0,1-.908.349,4.375,4.375,0,0,1-1.04.125,2.4,2.4,0,0,1-1.7-.606,2.169,2.169,0,0,1-.652-1.672v-3.054h-.987v-1.553h.987v-1.974h2.33v1.974h1.843v1.553H691.68v2.685q0,.751.619.75a2.285,2.285,0,0,0,.909-.237Z" transform="translate(-633.051 -412.599)" fill="#2a5d73"/>
      <path id="Trazado_13" data-name="Trazado 13" d="M709.742,419.292a4.029,4.029,0,0,1,.935,2.817c0,.185,0,.325-.013.421h-4.949a1.711,1.711,0,0,0,.593.928,1.637,1.637,0,0,0,1.027.323,2.225,2.225,0,0,0,.888-.184,2.5,2.5,0,0,0,.783-.54l1.224,1.224a3.6,3.6,0,0,1-1.336.941,4.611,4.611,0,0,1-1.771.322,4.261,4.261,0,0,1-2-.447,3.111,3.111,0,0,1-1.31-1.264,3.833,3.833,0,0,1-.454-1.9,3.93,3.93,0,0,1,.461-1.928,3.182,3.182,0,0,1,1.3-1.29,4.043,4.043,0,0,1,1.948-.454A3.43,3.43,0,0,1,709.742,419.292Zm-1.343,1.988a1.371,1.371,0,0,0-.362-.994,1.377,1.377,0,0,0-1.882-.007,1.833,1.833,0,0,0-.494,1Z" transform="translate(-642.255 -415.067)" fill="#2a5d73"/>
      <path id="Trazado_14" data-name="Trazado 14" d="M728.705,418.56a2.681,2.681,0,0,1,1.336-.329v2.146c-.079-.008-.2-.013-.356-.013a2.169,2.169,0,0,0-1.343.388,1.489,1.489,0,0,0-.592,1.06v3.633h-2.343v-7.121h2.343v1.185A2.562,2.562,0,0,1,728.705,418.56Z" transform="translate(-655.788 -415.046)" fill="#2a5d73"/>
      <path id="Trazado_15" data-name="Trazado 15" d="M741.95,410.333a1.331,1.331,0,0,1,0,1.8,1.289,1.289,0,0,1-1.777,0,1.331,1.331,0,0,1,0-1.8,1.306,1.306,0,0,1,1.777,0Zm-2.034,2.928h2.33v7.122h-2.33Z" transform="translate(-664.636 -409.984)" fill="#2a5d73"/>
      <path id="Trazado_16" data-name="Trazado 16" d="M755.353,418.909a2.371,2.371,0,0,1,.829,1.9v4.633h-2.3v-.8a2.556,2.556,0,0,1-2.146.908,2.5,2.5,0,0,1-1.784-.612,2.109,2.109,0,0,1-.652-1.613,1.913,1.913,0,0,1,.7-1.58,3.213,3.213,0,0,1,2.021-.579h1.856v-.079a.948.948,0,0,0-.349-.789,1.589,1.589,0,0,0-1.007-.277,4.057,4.057,0,0,0-1.007.145,5.983,5.983,0,0,0-1.125.421l-.645-1.579a9.262,9.262,0,0,1,1.665-.586,7.072,7.072,0,0,1,1.652-.191A3.488,3.488,0,0,1,755.353,418.909Zm-1.974,4.791a1.111,1.111,0,0,0,.5-.665v-.619h-1.4q-.987,0-.987.737a.728.728,0,0,0,.256.586,1.059,1.059,0,0,0,.7.217A1.653,1.653,0,0,0,753.379,423.7Z" transform="translate(-670.451 -415.046)" fill="#2a5d73"/>
      <path id="Trazado_17" data-name="Trazado 17" d="M772.09,431.6a1.105,1.105,0,0,1,.316.816,1.128,1.128,0,0,1-.316.823,1.093,1.093,0,0,1-.817.323,1.074,1.074,0,0,1-.8-.323,1.229,1.229,0,0,1-.007-1.639,1.079,1.079,0,0,1,.809-.316A1.1,1.1,0,0,1,772.09,431.6Z" transform="translate(-683.252 -423.057)" fill="#2a5d73"/>
      <path id="Trazado_18" data-name="Trazado 18" d="M784.446,419.292a4.029,4.029,0,0,1,.935,2.817c0,.185,0,.325-.013.421h-4.949a1.712,1.712,0,0,0,.592.928,1.638,1.638,0,0,0,1.027.323,2.227,2.227,0,0,0,.889-.184,2.51,2.51,0,0,0,.783-.54l1.224,1.224a3.609,3.609,0,0,1-1.336.941,4.612,4.612,0,0,1-1.771.322,4.259,4.259,0,0,1-2-.447,3.108,3.108,0,0,1-1.31-1.264,3.833,3.833,0,0,1-.454-1.9,3.927,3.927,0,0,1,.461-1.928,3.181,3.181,0,0,1,1.3-1.29,4.041,4.041,0,0,1,1.948-.454A3.43,3.43,0,0,1,784.446,419.292Zm-1.343,1.988a1.373,1.373,0,0,0-.362-.994,1.377,1.377,0,0,0-1.883-.007,1.835,1.835,0,0,0-.494,1Z" transform="translate(-688.105 -415.067)" fill="#2a5d73"/>
      <path id="Trazado_19" data-name="Trazado 19" d="M801.512,419.829a.931.931,0,0,0-.487.112.367.367,0,0,0-.184.336.433.433,0,0,0,.29.382,5.343,5.343,0,0,0,.921.316,11.488,11.488,0,0,1,1.27.441,2.319,2.319,0,0,1,.875.658,1.737,1.737,0,0,1,.369,1.152,1.98,1.98,0,0,1-.836,1.691,3.6,3.6,0,0,1-2.178.612,5.84,5.84,0,0,1-1.737-.257,4.6,4.6,0,0,1-1.474-.757l.737-1.514a5.182,5.182,0,0,0,1.27.652,3.84,3.84,0,0,0,1.257.231,1.138,1.138,0,0,0,.546-.112.351.351,0,0,0,.2-.323.448.448,0,0,0-.3-.408,5.649,5.649,0,0,0-.928-.316,10.473,10.473,0,0,1-1.238-.441,2.337,2.337,0,0,1-.849-.652,1.709,1.709,0,0,1-.362-1.132,2,2,0,0,1,.816-1.691,3.415,3.415,0,0,1,2.106-.612,5.717,5.717,0,0,1,2.962.829l-.79,1.527A5.219,5.219,0,0,0,801.512,419.829Z" transform="translate(-700.551 -415.025)" fill="#2a5d73"/>
    </g>
    <g id="Grupo_14" data-name="Grupo 14" transform="translate(543.16 316.544)">
      <g id="Grupo_6" data-name="Grupo 6" transform="translate(63.456)">
        <path id="Trazado_20" data-name="Trazado 20" d="M750.589,335.621l-.621-2.507a1.473,1.473,0,0,0-1.788-1.075l-11.541,2.885-.1-.063-1.331-5.325.062-.1,11.527-2.874a1.474,1.474,0,0,0,1.072-1.793l-.51-2a2.755,2.755,0,0,0-.813-1.373c-3.809-3.436-12.883-6.9-20.115-3.36-5.7,2.791-7.491,3.246-12.742,3.246H708.53a1.072,1.072,0,0,0-.864,1.71,13.353,13.353,0,0,1,1.619,2.857,1.748,1.748,0,0,0,1.611,1.093h2.788c6.1,0,8.806-.676,15.229-3.822,2.862-1.4,6.454-.957,8.813-.133l-5.038,1.26a2.663,2.663,0,0,0-1.637,1.213l-1.343,2.238a2.657,2.657,0,0,0-.3,2.013l1.936,7.738a2.659,2.659,0,0,0,1.212,1.635l2.238,1.341a2.657,2.657,0,0,0,2.011.3l4.978-1.209c-1.894,2.3-4.98,4.606-8.222,4.61s-5.612-1.863-8.354-4.02c-3.053-2.4-6.514-5.124-11.523-5.124H710.9a1.747,1.747,0,0,0-1.611,1.093,13.373,13.373,0,0,1-1.619,2.857,1.072,1.072,0,0,0,.864,1.71h5.155c3.05,0,5.354,1.813,8.023,3.912,3.117,2.452,6.65,5.231,11.854,5.231,9.946,0,16.469-11.7,16.742-12.2h0A2.622,2.622,0,0,0,750.589,335.621Z" transform="translate(-707.453 -316.544)" fill="#988e7d"/>
      </g>
      <g id="Grupo_7" data-name="Grupo 7" transform="translate(16.552 4.328)">
        <path id="Trazado_21" data-name="Trazado 21" d="M614.053,341.769a14.019,14.019,0,1,1-14.019-14.019A14.019,14.019,0,0,1,614.053,341.769Zm-14.019-8.3a8.3,8.3,0,1,0,8.3,8.3A8.3,8.3,0,0,0,600.033,333.47Z" transform="translate(-586.014 -327.75)" fill="#2a5d73"/>
      </g>
      <g id="Grupo_10" data-name="Grupo 10" transform="translate(0 4.784)">
        <g id="Grupo_8" data-name="Grupo 8">
          <rect id="Rectángulo_5" data-name="Rectángulo 5" width="21.385" height="5.66" rx="1.559" fill="#2a5d73"/>
        </g>
        <g id="Grupo_9" data-name="Grupo 9" transform="translate(7.863 2.83)">
          <rect id="Rectángulo_6" data-name="Rectángulo 6" width="5.66" height="24.244" rx="1.559" fill="#2a5d73"/>
        </g>
      </g>
      <g id="Grupo_13" data-name="Grupo 13" transform="translate(44.294 4.739)">
        <g id="Grupo_11" data-name="Grupo 11">
          <path id="Rectángulo_7" data-name="Rectángulo 7" d="M1.559,0h4.1a0,0,0,0,1,0,0V25.56A1.559,1.559,0,0,1,4.1,27.119H1.559A1.559,1.559,0,0,1,0,25.56v-24A1.559,1.559,0,0,1,1.559,0Z" fill="#2a5d73"/>
        </g>
        <g id="Grupo_12" data-name="Grupo 12" transform="translate(1.869 0)">
          <path id="Trazado_22" data-name="Trazado 22" d="M669.41,328.813h-6.375l-.357,5.643h6.732a4.03,4.03,0,0,1,0,8.059h-6.732l.357,5.643h6.375a9.672,9.672,0,0,0,0-19.345Z" transform="translate(-662.679 -328.813)" fill="#2a5d73"/>
        </g>
      </g>
    </g>
  </g>
</svg>
