<svg xmlns="http://www.w3.org/2000/svg" width="31.962" height="22.47" viewBox="0 0 31.962 22.47">
  <g id="Grupo_17" data-name="Grupo 17" transform="translate(-102 -6.275)">
    <g id="Grupo_15" data-name="Grupo 15" transform="translate(98 1.118)">
      <path id="Trazado_23" data-name="Trazado 23" d="M7.7,27.627H20.938a4.255,4.255,0,0,0,4.234-4.234v-.387a2.388,2.388,0,0,0,1.6-2.25v-3.17a2.379,2.379,0,0,0-1.6-2.25v-.387a4.255,4.255,0,0,0-4.234-4.234h-.169L20.6,9.649A2.457,2.457,0,0,0,19.534,8a2.353,2.353,0,0,0-1.936-.29L6.952,10.762a.6.6,0,0,0-.218.1A3.688,3.688,0,0,0,4,14.416v9.509A3.7,3.7,0,0,0,7.7,27.627ZM24.374,17.319a.242.242,0,0,1,.266.266v3.17a.242.242,0,0,1-.266.266H21.18a1.863,1.863,0,1,1,0-3.726h3.194ZM18.179,9.746a.3.3,0,0,1,.218.024.189.189,0,0,1,.1.194l.1.75H14.84ZM6.105,14.416a1.611,1.611,0,0,1,1.6-1.6H20.938a2.107,2.107,0,0,1,2.105,2.105v.29H21.18a3.968,3.968,0,1,0,0,7.937h1.863v.266a2.107,2.107,0,0,1-2.105,2.105H7.7a1.611,1.611,0,0,1-1.6-1.6V14.416Z" fill="#3f3f3f"/>
    </g>
    <g id="Grupo_16" data-name="Grupo 16" transform="translate(-3 -5)">
      <g id="Elipse_2" data-name="Elipse 2" transform="translate(126.412 11.275)" fill="#d6d2cb" stroke="#2a5d73" stroke-width="1.6">
        <circle cx="3.981" cy="3.981" r="3.981" stroke="none"/>
        <circle cx="3.981" cy="3.981" r="3.181" fill="none"/>
      </g>
      <g id="Elipse_1" data-name="Elipse 1" transform="translate(129 14)" fill="#d6d2cb" stroke="#2a5d73" stroke-width="1.6">
        <circle cx="3.981" cy="3.981" r="3.981" stroke="none"/>
        <circle cx="3.981" cy="3.981" r="3.181" fill="none"/>
      </g>
    </g>
  </g>
</svg>
