<svg xmlns="http://www.w3.org/2000/svg" width="22.555" height="30.451" viewBox="0 0 22.555 30.451">
  <g id="Grupo_32" data-name="Grupo 32" transform="translate(0.75 0.75)">
    <path id="Trazado_42" data-name="Trazado 42" d="M28.528,958.362a8.327,8.327,0,0,0-8.225,8.454v3.394c-1.51.152-2.3,1.43-2.3,2.983V984.32a2.989,2.989,0,0,0,2.992,2.993H36.063a2.989,2.989,0,0,0,2.992-2.993V973.192c0-1.552-.793-2.84-2.3-2.993v-3.384A8.327,8.327,0,0,0,28.528,958.362Zm0,3.281a5.216,5.216,0,0,1,5.264,5.194V970.2H23.264v-3.363A5.216,5.216,0,0,1,28.528,961.643Zm0,12.835a2.3,2.3,0,0,1,1.254,4.237,1.318,1.318,0,0,1,.062.37v2.633a1.316,1.316,0,1,1-2.632,0v-2.633a1.318,1.318,0,0,1,.062-.37,2.3,2.3,0,0,1,1.254-4.237Z" transform="translate(-18 -958.362)" fill="none" stroke="#3f3f3f" stroke-width="1.5"/>
  </g>
</svg>
