<svg xmlns="http://www.w3.org/2000/svg" width="37.366" height="33.554" viewBox="0 0 37.366 33.554">
  <path id="Trazado_571" data-name="Trazado 571" d="M51.1,42.664c0-3.068-.568-5.932,1.886-7.841,4.023-3.2,5.565-8.182,5.565-13.773,0-6.818-4.936-12.75-10.663-15.682a.558.558,0,0,0-.818.477V16.482a5.471,5.471,0,0,1-5.455,5.455H41.05a5.471,5.471,0,0,1-5.455-5.455V6.39a.558.558,0,0,0-.818-.477C29.527,8.981,25,14.641,25,21.05c0,5.318,1.269,10.023,5.019,13.3,2.182,1.909,1.687,5.455,1.687,8.318Z" transform="translate(42.664 -25) rotate(90)" fill="#db3c3c"/>
</svg>
