<svg id="Grupo_23" data-name="Grupo 23" xmlns="http://www.w3.org/2000/svg" width="18.685" height="18.685" viewBox="0 0 18.685 18.685">
  <path id="Trazado_35" data-name="Trazado 35" d="M8.577,14.21a1.991,1.991,0,0,1-1.8.267L2.792,18.463a1.507,1.507,0,1,0,2.131,2.131l3.985-3.985a1.99,1.99,0,0,1,.268-1.8,7.131,7.131,0,1,0-.6-.6ZM8.462,9.477a5.447,5.447,0,1,1,5.447,5.447A5.453,5.453,0,0,1,8.462,9.477Z" transform="translate(-2.351 -2.35)" fill="#3f3f3f"/>
  <path id="Trazado_36" data-name="Trazado 36" d="M42.687,15.547a.648.648,0,1,1,0,1.3,3.248,3.248,0,0,0-3.245,3.245.647.647,0,0,1-1.295,0A4.545,4.545,0,0,1,42.687,15.547Z" transform="translate(-31.129 -12.959)" fill="#2a5d73"/>
</svg>
