<svg xmlns="http://www.w3.org/2000/svg" width="7.506" height="13.951" viewBox="0 0 7.506 13.951">
  <g id="Grupo_75" data-name="Grupo 75" transform="translate(0 13.951) rotate(-90)">
    <path id="Trazado_53" data-name="Trazado 53" d="M6.85.006a1.335,1.335,0,0,0-.743.317L.5,5.129A1.335,1.335,0,1,0,2.236,7.157L6.975,3.093l4.739,4.064A1.335,1.335,0,1,0,13.45,5.129L7.843.323A1.335,1.335,0,0,0,6.85.006Z" transform="translate(0 0)" fill="#3f3f3f"/>
  </g>
</svg>
