<svg xmlns="http://www.w3.org/2000/svg" width="33.859" height="27.443" viewBox="0 0 33.859 27.443">
  <g id="Grupo_33" data-name="Grupo 33" transform="translate(-1032.329 -581.811)">
    <path id="Trazado_43" data-name="Trazado 43" d="M25.634,4H1.709A1.71,1.71,0,0,0,0,5.709V22.8a1.71,1.71,0,0,0,1.709,1.709H25.634A1.71,1.71,0,0,0,27.343,22.8V5.709A1.71,1.71,0,0,0,25.634,4ZM2.563,5.709H24.779a.854.854,0,0,1,.854.854V9.127H1.709V6.563A.854.854,0,0,1,2.563,5.709ZM24.779,22.8H2.563a.854.854,0,0,1-.854-.854v-7.69H25.634v7.69A.854.854,0,0,1,24.779,22.8Z" transform="matrix(0.966, -0.259, 0.259, 0.966, 1033.434, 585.024)" fill="#fff"/>
    <g id="Rectángulo_20" data-name="Rectángulo 20" transform="translate(1032.329 588.254)" fill="#171515" stroke="#fff" stroke-width="1.8">
      <path d="M1,0H15A10,10,0,0,1,25,10V20a1,1,0,0,1-1,1H1a1,1,0,0,1-1-1V1A1,1,0,0,1,1,0Z" stroke="none"/>
      <path d="M1,.9H15A9.1,9.1,0,0,1,24.1,10V20a.1.1,0,0,1-.1.1H1A.1.1,0,0,1,.9,20V1A.1.1,0,0,1,1,.9Z" fill="none"/>
    </g>
  </g>
</svg>
