<svg xmlns="http://www.w3.org/2000/svg" width="24.231" height="21" viewBox="0 0 24.231 21">
  <g id="Grupo_73" data-name="Grupo 73" transform="translate(-4.982 -963.362)">
    <path id="Trazado_44" data-name="Trazado 44" d="M5.761,963.362a.807.807,0,0,0-.252,1.564l3.785,1.421v10.613a3.042,3.042,0,0,0-1.346,2.557,2.857,2.857,0,0,0,2.54,2.952,2.693,2.693,0,0,0,5.14.008h4.122a2.682,2.682,0,1,0-.177-1.615H15.628a2.691,2.691,0,0,0-5.131-.008,1.27,1.27,0,0,1-.934-1.337,1.22,1.22,0,0,1,1.077-1.346H24.1a.826.826,0,0,0,.723-.463l4.307-8.881a.811.811,0,0,0,.084-.345v-.807a.839.839,0,0,0-.808-.807h-17.5v-1.076a.829.829,0,0,0-.522-.757L6.08,963.421A.81.81,0,0,0,5.761,963.362Zm5.148,5.122h16.6l-3.92,8.073H10.909Zm11.305,11.841a1.076,1.076,0,1,1-1.077,1.076A1.065,1.065,0,0,1,22.214,980.325Zm-9.152.269a1.076,1.076,0,1,1-1.077,1.077A1.065,1.065,0,0,1,13.062,980.594Z" fill="#3f3f3f"/>
  </g>
</svg>
