<svg xmlns="http://www.w3.org/2000/svg" width="15.045" height="13.609" viewBox="0 0 15.045 13.609">
  <g id="Grupo_1143" data-name="Grupo 1143" transform="translate(-0.99 -5.647)">
    <path id="Trazado_549" data-name="Trazado 549" d="M23.861,52.145H13.668a.577.577,0,0,1-.568-.568V45.068a.568.568,0,1,1,1.136,0v5.941h9.057V45.068a.568.568,0,1,1,1.136,0v6.509A.577.577,0,0,1,23.861,52.145Z" transform="translate(-10.251 -32.889)" fill="#cbc6bd"/>
    <path id="Trazado_550" data-name="Trazado 550" d="M38.969,67.529H36.144a.842.842,0,0,1-.844-.844v-2.84A.842.842,0,0,1,36.144,63h2.825a.842.842,0,0,1,.844.844v2.825A.836.836,0,0,1,38.969,67.529Zm-2.548-1.136h2.272V64.121H36.421Z" transform="translate(-29.043 -48.549)" fill="#cbc6bd"/>
    <path id="Trazado_551" data-name="Trazado 551" d="M15.467,10.644a.6.6,0,0,1-.522-.322L13.334,6.791H3.693L2.066,10.245a.586.586,0,0,1-.752.276.586.586,0,0,1-.276-.752L2.757,6.131a.637.637,0,0,1,.184-.307.693.693,0,0,1,.583-.169H13.5a.8.8,0,0,1,.583.169.574.574,0,0,1,.184.307l1.7,3.7a.567.567,0,0,1-.276.752A.4.4,0,0,1,15.467,10.644Z" transform="translate(0)" fill="#cbc6bd"/>
    <g id="Grupo_1143-2" data-name="Grupo 1143" transform="translate(0.991 9.723)">
      <path id="Trazado_552" data-name="Trazado 552" d="M26,35.071a2.3,2.3,0,0,1-2.3-2.3.568.568,0,1,1,1.136,0,1.167,1.167,0,0,0,2.333,0,.568.568,0,1,1,1.136,0A2.3,2.3,0,0,1,26,35.071Z" transform="translate(-20.215 -32.2)" fill="#cbc6bd"/>
      <path id="Trazado_553" data-name="Trazado 553" d="M71.3,35.071a2.3,2.3,0,0,1-2.3-2.3.568.568,0,1,1,1.136,0,1.167,1.167,0,0,0,2.333,0,.568.568,0,1,1,1.136,0A2.3,2.3,0,0,1,71.3,35.071Z" transform="translate(-58.561 -32.2)" fill="#cbc6bd"/>
      <path id="Trazado_554" data-name="Trazado 554" d="M48.6,35.071a2.3,2.3,0,0,1-2.3-2.3.568.568,0,1,1,1.136,0,1.167,1.167,0,0,0,2.333,0,.568.568,0,1,1,1.136,0A2.3,2.3,0,0,1,48.6,35.071Z" transform="translate(-39.346 -32.2)" fill="#cbc6bd"/>
      <path id="Trazado_555" data-name="Trazado 555" d="M3.3,35.071a2.3,2.3,0,0,1-2.3-2.3.577.577,0,0,1,.568-.568.577.577,0,0,1,.568.568,1.167,1.167,0,0,0,2.333,0,.568.568,0,1,1,1.136,0A2.3,2.3,0,0,1,3.3,35.071Z" transform="translate(-1 -32.2)" fill="#cbc6bd"/>
    </g>
  </g>
</svg>
