<svg xmlns="http://www.w3.org/2000/svg" width="15.121" height="15.121" viewBox="0 0 15.121 15.121">
  <g id="Grupo_709" data-name="Grupo 709" transform="translate(-1385.439 -175.439)">
    <line id="Línea_2" data-name="Línea 2" x2="13" y2="13" transform="translate(1386.5 176.5)" fill="none" stroke="#3f3f3f" stroke-linecap="round" stroke-width="1.5"/>
    <line id="Línea_3" data-name="Línea 3" x2="13" y2="13" transform="translate(1399.5 176.5) rotate(90)" fill="none" stroke="#3f3f3f" stroke-linecap="round" stroke-width="1.5"/>
  </g>
</svg>
