<svg xmlns="http://www.w3.org/2000/svg" width="28" height="28" viewBox="0 0 28 28">
  <g id="Grupo_1142" data-name="Grupo 1142" transform="translate(-887 -757)">
    <circle id="Elipse_13" data-name="Elipse 13" cx="14" cy="14" r="14" transform="translate(887 757)" fill="#eac033"/>
    <path id="Unión_2" data-name="Unión 2" d="M-535.674-3839.979v-5.327H-541v-2.367h5.326V-3853h2.368v5.327h5.327v2.367h-5.327v5.327Z" transform="translate(1435.489 4617.989)" fill="#3f3f3f"/>
  </g>
</svg>
